Order No,Order Date,Currency,Customer Code,Name,Email,Product Description,SKU,Quantity,Price,Cost Per Unit,Shipping Charge,Shipping Paid to carrier
701-6906466-5053824,2019-07-23T16:28:15+00:00,CAD,m2c2kwhpk5drvrd,m2c2kwhpk5drvrd@marketplace.amazon.ca,m2c2kwhpk5drvrd@marketplace.amazon.ca,"Odoga LT600P Refrigerator Water Filter Replacement for LG 5231JA2006A,LT600P, 5231JA2006B, CLS30320001, SGF-LB60, 469990 (3-Pack)",WFSM00056_1_CA,1,57.99,46.392,0,0
702-4320938-0789840,2019-07-23T00:40:57+00:00,CAD,h0kff70f0tkjp6l,h0kff70f0tkjp6l@marketplace.amazon.ca,h0kff70f0tkjp6l@marketplace.amazon.ca,Odoga Ink Cartridge PGI-225 CLI-226 High Yield Combo Pack Replacement Canon Pixma MG5220 MG5320 MG6220 MG6120 MG8120 iP4820M X885 MX892 MX895 MX882 [4,NKSM00012_1_CA,1,24.94,19.952,0,0
112-3254527-7318627,2019-07-23T17:40:10+00:00,USD,dxx6jlsrk3810zm,dxx6jlsrk3810zm@marketplace.amazon.com,dxx6jlsrk3810zm@marketplace.amazon.com,"Odoga Travel Adapter Kit - Universal Power Adapter with 2 AC Outlets, 2 USB Ports - International Power Adapters Plugs for Europe, UK, China, Australi",PWSM00020_2_US,1,22.99,18.392,0,0
112-8571136-4973863,2019-07-23T18:48:46+00:00,USD,69x1bc78n4nnhv6,69x1bc78n4nnhv6@marketplace.amazon.com,69x1bc78n4nnhv6@marketplace.amazon.com,"Odoga 8 Pack CLI-42 Compatible Ink Cartridge Replacement for Canon Pixma Pro-100 [1 Black, 1 Cyan, 1 Magenta, 1 Yellow, 1 P Cyan, 1 P Magenta, 1 Gray,",NKSM00003_1_US,1,22.99,18.392,0,0
701-8835151-9742665,2019-07-23T22:42:34+00:00,CAD,yqy3hdc20dv7zwf,yqy3hdc20dv7zwf@marketplace.amazon.ca,yqy3hdc20dv7zwf@marketplace.amazon.ca,"Odoga MWF Refrigerator Water Filter Replacement for GE MWF, GWF, GWFA, MWFA, MWFP, FMG-1, Kenmore 9991, 46-9991 (3-Pack)",WFSM00037_5_CA,1,49.94,39.952,6.99,6.291
114-3848488-9357030,2019-07-23T21:26:57+00:00,USD,jynktqlpbg0nxxy,jynktqlpbg0nxxy@marketplace.amazon.com,jynktqlpbg0nxxy@marketplace.amazon.com,"Odoga LT700P Refrigerator Water Filter Compatible with LG LT700P, ADQ36006101, LFX31925ST, ADQ36006102, LFX31945ST, LFX25991ST, Kenmore 46-9690",WFSM00007_1_US,1,15.99,12.792,0,0
114-0061479-3999413,2019-07-23T13:12:21+00:00,USD,3fmlbsf10frty32,3fmlbsf10frty32@marketplace.amazon.com,3fmlbsf10frty32@marketplace.amazon.com,Odoga Voltage Converter 220V to 110V Travel Adapter with 4 USB Ports 3 AC Outlets and UK/Europe/AUS International Travel Plugs Suitable for More Than,PWSM00014_1_US,1,41.99,33.592,0,0
111-7994172-9724262,2019-07-23T16:51:38+00:00,USD,mqzcfxrntlgpfdz,mqzcfxrntlgpfdz@marketplace.amazon.com,mqzcfxrntlgpfdz@marketplace.amazon.com,"Odoga LT800P Refrigerator Water Filter Replacement for LG LT800P, ADQ73613401, ADQ73613402, Kenmore 9490, 46-9490, 469490 (3-pack)",WFSM00074_1_US,1,24.99,19.992,0,0
114-6466650-2534608,2019-07-22T20:44:50+00:00,USD,lphfpz66gw0zsrg,lphfpz66gw0zsrg@marketplace.amazon.com,lphfpz66gw0zsrg@marketplace.amazon.com,"Odoga 4396508 Refrigerator Water Filter Replacement for Whirlpool 4396508, EDR5RXD1, 4396510, 4392857, WF-NLC240V, WF-L500, 4396918, W10186668, EveryD",WFSM00046_2_US,1,42.99,34.392,0,0
114-7625228-1346606,2019-07-23T19:09:17+00:00,USD,8sky7m6wrh24zp6,8sky7m6wrh24zp6@marketplace.amazon.com,8sky7m6wrh24zp6@marketplace.amazon.com,"Odoga LT700P Refrigerator Water Filter Compatible with LG LT700P, ADQ36006101, LFX31925ST, ADQ36006102, LFX31945ST, LFX25991ST, Kenmore 46-9690 (3-Pac",WFSM00038_2_US,1,34.99,27.992,0,0
111-3162152-6124235,2019-07-23T19:10:49+00:00,USD,jck7lv0b314kcdl,jck7lv0b314kcdl@marketplace.amazon.com,jck7lv0b314kcdl@marketplace.amazon.com,"Odoga 10 Pack LC201 LC203 LC203XL Ink Cartridge Replacement for Brother MFC-J480DW J485DW J4420DW J885DW J4620DW J460DW J5520DW J680DW [4 Black, 2 Cya",NKSM00002_1_US,1,21.99,17.592,0,0
112-7129796-5257837,2019-07-24T01:54:45+00:00,USD,67v6jl15vpd64qy,67v6jl15vpd64qy@marketplace.amazon.com,67v6jl15vpd64qy@marketplace.amazon.com,"Odoga Aromatherapy Essential Oil Diffuser with Decorative Iron Cover, 100 ml Ultrasonic Quiet Cool Mist Humidifier with Warm White Color Candle Light",ADSM00008_1_US,1,38.99,31.192,0,0
114-8601230-5909044,2019-07-24T00:36:53+00:00,USD,yzldd5ld9s2qm7q,yzldd5ld9s2qm7q@marketplace.amazon.com,yzldd5ld9s2qm7q@marketplace.amazon.com,"Odoga LT600P Refrigerator Water Filter Replacement for LG 5231JA2006A,LT600P, 5231JA2006B, CLS30320001, SGF-LB60, 469990",WFSM00013_1_US,1,16.99,13.592,0,0
114-4248783-6501858,2019-07-23T03:01:17+00:00,USD,6jpbymdw6786gv0,6jpbymdw6786gv0@marketplace.amazon.com,6jpbymdw6786gv0@marketplace.amazon.com,Odoga 300W Car Power Inverter DC 12V to 110V AC Car Adapter with Dual USB Charging Ports [4.8A] and 2 AC Outlets,PWSM00016_2_US,1,23.99,19.192,0,0
701-6211136-6213833,2019-07-24T03:06:58+00:00,CAD,0pw1dwqbsqphvg4,0pw1dwqbsqphvg4@marketplace.amazon.ca,0pw1dwqbsqphvg4@marketplace.amazon.ca,Odoga ULTRAWF Refrigerator Water Filter Compatible with Frigidaire ULTRAWF 242017801 241791601 242017800 (2-Pack),WFSM00028_1_CA,1,39.94,31.952,5.9,5.31
112-8357932-6796256,2019-07-23T19:28:40+00:00,USD,xhn2nbcbgn2prrr,xhn2nbcbgn2prrr@marketplace.amazon.com,xhn2nbcbgn2prrr@marketplace.amazon.com,"Odoga 9000194412 Refrigerator Water Filter Replacement for Bosch Ultra Clarity 9000194412, 644845, 9000077104, B26FT70SNS, B22CS30SNS, B22CS80SNS, B22",WFSM00076_1_US,1,49.99,39.992,0,0
113-6583004-7830659,2019-07-23T08:04:04+00:00,USD,2xz58gtlv8q80sd,2xz58gtlv8q80sd@marketplace.amazon.com,2xz58gtlv8q80sd@marketplace.amazon.com,Odoga Voltage Converter 220V to 110V Travel Adapter with 4 USB Ports 3 AC Outlets and UK/Europe/AUS International Travel Plugs Suitable for More Than,PWSM00014_1_US,1,41.99,33.592,0,0
702-5803642-8157034,2019-07-23T21:04:17+00:00,CAD,44hrjcys6c1ypq3,44hrjcys6c1ypq3@marketplace.amazon.ca,44hrjcys6c1ypq3@marketplace.amazon.ca,Odoga Compatible 20 Pack LC101 LC103 LC103BK Ink Cartridge Replacement for Brother MFC-J470DW J6920DW J475DW J4510DW J450DW J4710DW J6520DW J870DW [8,NKSM00006_1_CA,1,26.94,21.552,6.99,6.291
114-3098001-2279439,2019-07-16T03:47:47+00:00,USD,6zq934tcqfgbxwb,6zq934tcqfgbxwb@marketplace.amazon.com,6zq934tcqfgbxwb@marketplace.amazon.com,"Odoga LT600P Refrigerator Water Filter Replacement for LG 5231JA2006A,LT600P, 5231JA2006B, CLS30320001, SGF-LB60, 469990",WFSM00013_1_US,1,16.99,13.592,1.59,1.431
701-1084992-1305068,2019-07-24T05:32:52+00:00,CAD,wppw1lldg73889z,wppw1lldg73889z@marketplace.amazon.ca,wppw1lldg73889z@marketplace.amazon.ca,"Odoga Aromatherapy Essential Oil Diffuser, 100 ml Ultrasonic Quiet Cool Mist Humidifier with Warm White Color Candle Light Effect, Decorative Iron Gol",ADSM00009_1_CA,1,25.99,20.792,6.99,6.291
113-6107000-8220262,2019-07-23T23:27:32+00:00,USD,rqjst2s525hzrgb,rqjst2s525hzrgb@marketplace.amazon.com,rqjst2s525hzrgb@marketplace.amazon.com,Odoga Voltage Converter 220V to 110V Travel Adapter with 4 USB Ports 3 AC Outlets and UK/Europe/AUS International Travel Plugs Suitable for More Than,PWSM00014_1_US,1,41.99,33.592,0,0
701-2141330-6751403,2019-07-23T21:14:43+00:00,CAD,gyjg1x71r5qrdd4,gyjg1x71r5qrdd4@marketplace.amazon.ca,gyjg1x71r5qrdd4@marketplace.amazon.ca,"Odoga Compatible 5 Pack PGI-1200 PGI-1200XL Ink Cartridge Replacement for Canon Maxify MB2320 MB2020 MB2050 MB2720 MB2350 MB2720 MB2120 [2 Black, 1 Cy",NKSM00009_1_CA,1,27.94,22.352,3.92,3.528
111-2137324-8271465,2019-07-18T14:48:01+00:00,USD,zdbxpksqp9310wk,zdbxpksqp9310wk@marketplace.amazon.com,zdbxpksqp9310wk@marketplace.amazon.com,"Decorative Essential Oil Diffuser by Odoga with Candle Light Effect & Iron Cover, Aromatherapy Diffuser with Remote Control, Adjustable Mist Mode and",ADSM00002_1_US,1,38.99,31.192,3.65,3.285
114-0953711-4643417,2019-07-23T16:46:38+00:00,USD,qj5bmk486ycxwdr,qj5bmk486ycxwdr@marketplace.amazon.com,qj5bmk486ycxwdr@marketplace.amazon.com,Odoga Voltage Converter 220V to 110V Travel Adapter with 4 USB Ports 3 AC Outlets and UK/Europe/AUS International Travel Plugs Suitable for More Than,PWSM00014_1_US,0,41.99,33.592,10,8
701-6906466-5053824,2019-07-23T16:28:15+00:00,CAD,m2c2kwhpk5drvrd,m2c2kwhpk5drvrd@marketplace.amazon.ca,m2c2kwhpk5drvrd@marketplace.amazon.ca,"Odoga Aromatherapy Essential Oil Diffuser, 100 ml Ultrasonic Quiet Cool Mist Humidifier with Warm White Color Candle Light Effect, Decorative Iron Gol",ADSM00002_1_US,1,57.99,46.392,0,0
701-6906466-5053825,2019-07-23T16:28:15+00:00,CAD,m2c2kwhpk5drvrd,m2c2kwhpk5drvrd@marketplace.amazon.ca,m2c2kwhpk5drvrd@marketplace.amazon.ca,"Odoga LT800P Refrigerator Water Filter Replacement for LG LT800P, ADQ73613401, ADQ73613402, Kenmore 9490, 46-9490, 469490 (3-pack)",WFSM00074_1_US,1,57.99,46.392,0,0
